/home/n0160495/shapes/shapes/project/src/test/java/com/libertymutual/student/Edward/programs/example01/shapes/CircleTest.java
/home/n0160495/shapes/shapes/project/src/test/java/com/libertymutual/student/Edward/programs/example01/shapes/SquareTest.java
/home/n0160495/shapes/shapes/project/src/test/java/com/libertymutual/student/Edward/programs/example01/shapes/RectangleTest.java
